module gitlab.com/protegear/sbd

require (
	github.com/ericchiang/k8s v1.2.0
	github.com/go-stack/stack v1.8.0 // indirect
	github.com/golang/protobuf v1.2.0 // indirect
	github.com/inconshreveable/log15 v0.0.0-20180818164646-67afb5ed74ec
	github.com/mattn/go-colorable v0.0.9 // indirect
	github.com/mattn/go-isatty v0.0.4 // indirect
	github.com/pires/go-proxyproto v0.0.0-20190615163442-2c19fd512994
	github.com/smartystreets/goconvey v0.0.0-20190731233626-505e41936337
	gopkg.in/yaml.v2 v2.2.1
)

go 1.13
